/Users/michelagopian/Desktop/cg-tp-2015-01/src/main/java/ar/edu/itba/pdc/tcp/proxy/connection/ConnectionEntity.java
/Users/michelagopian/Desktop/cg-tp-2015-01/src/main/java/ar/edu/itba/pdc/tcp/proxy/parser/HandshakeParser.java
/Users/michelagopian/Desktop/cg-tp-2015-01/src/main/java/ar/edu/itba/pdc/tcp/protocols/admin/command/AdminCommandsState.java
/Users/michelagopian/Desktop/cg-tp-2015-01/src/main/java/ar/edu/itba/pdc/tcp/proxy/parser/StanzaParser.java
/Users/michelagopian/Desktop/cg-tp-2015-01/src/main/java/ar/edu/itba/pdc/tcp/proxy/filters/XMLBodyEncoder.java
/Users/michelagopian/Desktop/cg-tp-2015-01/src/main/java/ar/edu/itba/pdc/tcp/protocols/admin/command/AdminCommands.java
/Users/michelagopian/Desktop/cg-tp-2015-01/src/main/java/ar/edu/itba/pdc/tcp/proxy/router/Address.java
/Users/michelagopian/Desktop/cg-tp-2015-01/src/main/java/ar/edu/itba/pdc/tcp/proxy/connection/State.java
/Users/michelagopian/Desktop/cg-tp-2015-01/src/main/java/ar/edu/itba/pdc/tcp/proxy/router/ClientServerRouteService.java
/Users/michelagopian/Desktop/cg-tp-2015-01/src/main/java/ar/edu/itba/pdc/tcp/properties/PropertieManager.java
/Users/michelagopian/Desktop/cg-tp-2015-01/src/main/java/ar/edu/itba/pdc/tcp/protocols/TCPProtocol.java
/Users/michelagopian/Desktop/cg-tp-2015-01/src/main/java/ar/edu/itba/pdc/tcp/proxy/filters/L33tConversor.java
/Users/michelagopian/Desktop/cg-tp-2015-01/src/main/java/ar/edu/itba/pdc/tcp/proxy/logs/LogsStrings.java
/Users/michelagopian/Desktop/cg-tp-2015-01/src/main/java/ar/edu/itba/pdc/tcp/proxy/parser/Parser.java
/Users/michelagopian/Desktop/cg-tp-2015-01/src/main/java/ar/edu/itba/pdc/tcp/proxy/XMPPProxyConfiguration.java
/Users/michelagopian/Desktop/cg-tp-2015-01/src/main/java/ar/edu/itba/pdc/tcp/protocols/admin/parser/AdminParser.java
/Users/michelagopian/Desktop/cg-tp-2015-01/src/main/java/ar/edu/itba/pdc/tcp/proxy/XMPPProxy.java
/Users/michelagopian/Desktop/cg-tp-2015-01/src/main/java/ar/edu/itba/pdc/tcp/protocols/xmpp/XMPPProxySelectorProtocol.java
/Users/michelagopian/Desktop/cg-tp-2015-01/src/main/java/ar/edu/itba/pdc/tcp/protocols/admin/AdminProtocol.java
/Users/michelagopian/Desktop/cg-tp-2015-01/src/main/java/ar/edu/itba/pdc/tcp/proxy/connection/ServerConnectionEntity.java
/Users/michelagopian/Desktop/cg-tp-2015-01/src/main/java/ar/edu/itba/pdc/tcp/proxy/connection/Connection.java
/Users/michelagopian/Desktop/cg-tp-2015-01/src/main/java/ar/edu/itba/pdc/tcp/proxy/metrics/MetricsService.java
